Getting Started with R
…
---
# Step 1: Get the data

Data is in .xls form (Excel) saved in the folder with .Rmd file

```r
library(readxl)
d <- readxl::read_excel("Ihno_dataset.xls")
d
```

```
> # A tibble: 100 x 18
>    Sub_num Gender Major Reason Exp_cond Coffee Num_cups Phobia Prevmath Mathquiz
>      <dbl>  <dbl> <dbl>  <dbl>    <dbl>  <dbl>    <dbl>  <dbl>    <dbl>    <dbl>
>  1       1      1     1      3        1      1        0      1        3       43
>  2       2      1     1      2        1      0        0      1        4       49
>  3       3      1     1      1        1      0        0      4        1       26
>  4       4      1     1      1        1      0        0      4        0       29
>  5       5      1     1      1        1      0        1     10        1       31
>  6       6      1     1      1        2      1        1      4        1       20
>  7       7      1     1      1        2      0        0      4        2       13
>  8       8      1     1      3        2      1        2      4        1       23
>  9       9      1     1      1        2      0        0      4        1       38
> 10      10      1     1      1        2      1        2      5        0       NA
> # ... with 90 more rows, and 8 more variables: Statquiz <dbl>, Exp_sqz <dbl>,
> #   Hr_base <dbl>, Hr_pre <dbl>, Hr_post <dbl>, Anx_base <dbl>, Anx_pre <dbl>,
> #   Anx_post <dbl>
```
…
d_clean <- d %>%
  dplyr::mutate(MajorF = factor(Major, 
                                levels = c(1, 2, 3, 4, 5),
                                labels = c("Psychology", "Premed",
                                           "Biology", "Sociology",
                                           "Economics"))) %>%
  dplyr::mutate(Coffee = factor(Coffee))

d_clean
```

```
> # A tibble: 100 x 19
>    Sub_num Gender Major Reason Exp_cond Coffee Num_cups Phobia Prevmath Mathquiz
>      <dbl>  <dbl> <dbl>  <dbl>    <dbl> <fct>     <dbl>  <dbl>    <dbl>    <dbl>
>  1       1      1     1      3        1 1             0      1        3       43
>  2       2      1     1      2        1 0             0      1        4       49
>  3       3      1     1      1        1 0             0      4        1       26
>  4       4      1     1      1        1 0             0      4        0       29
>  5       5      1     1      1        1 0             1     10        1       31
>  6       6      1     1      1        2 1             1      4        1       20
>  7       7      1     1      1        2 0             0      4        2       13
>  8       8      1     1      3        2 1             2      4        1       23
>  9       9      1     1      1        2 0             0      4        1       38
> 10      10      1     1      1        2 1             2      5        0       NA
> # ... with 90 more rows, and 9 more variables: Statquiz <dbl>, Exp_sqz <dbl>,
> #   Hr_base <dbl>, Hr_pre <dbl>, Hr_post <dbl>, Anx_base <dbl>, Anx_pre <dbl>,
> #   Anx_post <dbl>, MajorF <fct>
```
…
