Intro to Statistics
…
---
# Step 3: Compute new variables/values

```r
d_clean <- d_clean %>%
  mutate(newVar = Mathquiz/2)
```
*Note that I removed the other variables just to show you but in reality all the variables are still there

```
## # A tibble: 100 x 2
##    Mathquiz newVar
##       <dbl>  <dbl>
##  1       43   21.5
##  2       49   24.5
##  3       26   13  
##  4       29   14.5
##  5       31   15.5
##  6       20   10  
##  7       13    6.5
##  8       23   11.5
##  9       38   19  
## 10       NA   NA  
## # … with 90 more rows
```
…
